com\baeldung\web\hateoas\listener\SingleResourceRetrievedDiscoverabilityListener.class
com\baeldung\web\controller\FaultyRestController.class
com\baeldung\web\config\MyCustomErrorAttributes.class
com\baeldung\web\util\LinkUtil.class
com\baeldung\web\exception\MyResourceNotFoundException.class
com\baeldung\web\exception\CustomException1.class
com\baeldung\requestresponsebody\ExamplePostController.class
com\baeldung\persistence\model\Order.class
com\baeldung\SpringBootRestApplication.class
com\baeldung\web\controller\RootController.class
com\baeldung\services\ExampleService.class
com\baeldung\web\controller\students\StudentService.class
com\baeldung\persistence\IOperations.class
com\baeldung\persistence\service\impl\FooService.class
com\baeldung\spring\ConverterExtensionsConfig.class
com\baeldung\springpagination\dto\PostDto.class
com\baeldung\web\hateoas\event\PaginatedResultsRetrievedEvent.class
com\baeldung\springpagination\model\Preference.class
com\baeldung\services\OrderServiceImpl.class
com\baeldung\springpagination\dto\UserDto.class
com\baeldung\springpagination\controller\PostRestController.class
com\baeldung\web\hateoas\listener\PaginatedResultsRetrievedDiscoverabilityListener.class
com\baeldung\springpagination\model\Subject.class
com\baeldung\web\error\RestResponseStatusExceptionResolver.class
com\baeldung\persistence\service\IFooService.class
com\baeldung\requestresponsebody\ResponseTransfer.class
com\baeldung\springpagination\service\PostService.class
com\baeldung\springpagination\service\UserService.class
com\baeldung\web\controller\FooController.class
com\baeldung\web\controller\students\StudentController.class
com\baeldung\web\util\RestPreconditions.class
com\baeldung\web\exception\CustomException2.class
com\baeldung\web\error\RestResponseEntityExceptionHandler.class
com\baeldung\web\hateoas\listener\ResourceCreatedDiscoverabilityListener.class
com\baeldung\services\CustomerServiceImpl.class
com\baeldung\springpagination\model\Post.class
com\baeldung\persistence\dao\IFooDao.class
com\baeldung\spring\PersistenceConfig.class
com\baeldung\spring\WebConfig.class
com\baeldung\springpagination\model\User.class
com\baeldung\services\OrderService.class
com\baeldung\persistence\service\common\AbstractService.class
com\baeldung\springpagination\service\IUserService.class
com\baeldung\web\config\MyErrorController.class
com\baeldung\requestresponsebody\LoginForm.class
com\baeldung\persistence\model\Foo.class
com\baeldung\services\CustomerService.class
com\baeldung\web\exception\BadRequestException.class
com\baeldung\web\controller\students\Student.class
com\baeldung\springpagination\repository\PostRepository.class
com\baeldung\persistence\config\CustomH2Dialect.class
com\baeldung\web\controller\CustomerController.class
com\baeldung\springpagination\service\IPostService.class
com\baeldung\web\exception\ResourceNotFoundException.class
com\baeldung\web\hateoas\event\ResourceCreatedEvent.class
com\baeldung\springpagination\repository\SubjectRepository.class
com\baeldung\web\hateoas\event\SingleResourceRetrievedEvent.class
com\baeldung\persistence\model\Customer.class
